ISO-10303-21;
HEADER;
/* PinHeader_1x01_P2.54mm_Vertical.step 3D STEP model for use in ECAD systems
 * Copyright (C) 2017, kicad StepUp
 *
 * This work is licensed under the [Creative Commons CC-BY-SA 4.0 License](https://creativecommons.org/licenses/by-sa/4.0/legalcode),
 * with the following exception:
 * To the extent that the creation of electronic designs that use 'Licensed Material' can be considered to be 'Adapted Material',
 * then the copyright holder waives article 3 of the license with respect to these designs and any generated files which use data provided
 * as part of the 'Licensed Material'.
 * You are free to use the library data in your own projects without the obligation to share your project files under this or any other license agreement.
 * However, if you wish to redistribute these libraries, or parts thereof (including in modified form) as a collection then the exception above does not apply.
 * Please refer to https://github.com/KiCad/kicad-packages3D/blob/master/LICENSE.md for further clarification of the exception.
 * Disclaimer of Warranties and Limitation of Liability.
 * These libraries are provided in the hope that they will be useful, but are provided without warranty of any kind, express or implied.
 * *USE 3D CAD DATA AT YOUR OWN RISK*
 * *DO NOT RELY UPON ANY INFORMATION FOUND HERE WITHOUT INDEPENDENT VERIFICATION.*
 *
 */

FILE_DESCRIPTION(
/* description */ ('model of PinHeader_1x01_P2.54mm_Vertical'),
/* implementation_level */ '2;1');

FILE_NAME(
/* name */ 'PinHeader_1x01_P2.54mm_Vertical.step',
/* time_stamp */ '2017-12-09T23:53:40',
/* author */ ('kicad StepUp','ksu'),
/* organization */ ('FreeCAD'),
/* preprocessor_version */ 'OCC',
/* originating_system */ 'kicad StepUp',
/* authorisation */ '');

FILE_SCHEMA(('AUTOMOTIVE_DESIGN { 1 0 10303 214 1 1 1 1 }'));
ENDSEC;

DATA;
#1 = APPLICATION_PROTOCOL_DEFINITION('international standard',
'automotive_design',2000,#2);
#2 = APPLICATION_CONTEXT(
'core data for automotive mechanical design processes');
#3 = SHAPE_DEFINITION_REPRESENTATION(#4,#10);
#4 = PRODUCT_DEFINITION_SHAPE('','',#5);
#5 = PRODUCT_DEFINITION('design','',#6,#9);
#6 = PRODUCT_DEFINITION_FORMATION('','',#7);
#7 = PRODUCT('PinHeader_1x01_P254mm_Vertical',
'PinHeader_1x01_P254mm_Vertical','',(#8));
#8 = PRODUCT_CONTEXT('',#2,'mechanical');
#9 = PRODUCT_DEFINITION_CONTEXT('part definition',#2,'design');
#10 = ADVANCED_BREP_SHAPE_REPRESENTATION('',(#11,#15),#773);
#11 = AXIS2_PLACEMENT_3D('',#12,#13,#14);
#12 = CARTESIAN_POINT('',(0.,0.,0.));
#13 = DIRECTION('',(0.,0.,1.));
#14 = DIRECTION('',(1.,0.,-0.));
#15 = MANIFOLD_SOLID_BREP('',#16);
#16 = CLOSED_SHELL('',(#17,#57,#88,#119,#202,#285,#302,#319,#336,#353,
#365,#396,#420,#444,#461,#492,#516,#540,#557,#588,#612,#636,#653,
#684,#708,#732,#749,#761));
#17 = ADVANCED_FACE('',(#18),#52,.F.);
#18 = FACE_BOUND('',#19,.F.);
#19 = EDGE_LOOP('',(#20,#30,#38,#46));
#20 = ORIENTED_EDGE('',*,*,#21,.T.);
#21 = EDGE_CURVE('',#22,#24,#26,.T.);
#22 = VERTEX_POINT('',#23);
#23 = CARTESIAN_POINT('',(-1.016,1.27,0.));
#24 = VERTEX_POINT('',#25);
#25 = CARTESIAN_POINT('',(-1.016,1.27,2.54));
#26 = LINE('',#27,#28);
#27 = CARTESIAN_POINT('',(-1.016,1.27,0.));
#28 = VECTOR('',#29,1.);
#29 = DIRECTION('',(0.,0.,1.));
#30 = ORIENTED_EDGE('',*,*,#31,.T.);
#31 = EDGE_CURVE('',#24,#32,#34,.T.);
#32 = VERTEX_POINT('',#33);
#33 = CARTESIAN_POINT('',(-1.27,1.016,2.54));
#34 = LINE('',#35,#36);
#35 = CARTESIAN_POINT('',(-1.016,1.27,2.54));
#36 = VECTOR('',#37,1.);
#37 = DIRECTION('',(-0.707106781187,-0.707106781187,0.));
#38 = ORIENTED_EDGE('',*,*,#39,.F.);
#39 = EDGE_CURVE('',#40,#32,#42,.T.);
#40 = VERTEX_POINT('',#41);
#41 = CARTESIAN_POINT('',(-1.27,1.016,0.));
#42 = LINE('',#43,#44);
#43 = CARTESIAN_POINT('',(-1.27,1.016,0.));
#44 = VECTOR('',#45,1.);
#45 = DIRECTION('',(0.,0.,1.));
#46 = ORIENTED_EDGE('',*,*,#47,.F.);
#47 = EDGE_CURVE('',#22,#40,#48,.T.);
#48 = LINE('',#49,#50);
#49 = CARTESIAN_POINT('',(-1.016,1.27,0.));
#50 = VECTOR('',#51,1.);
#51 = DIRECTION('',(-0.707106781187,-0.707106781187,0.));
#52 = PLANE('',#53);
#53 = AXIS2_PLACEMENT_3D('',#54,#55,#56);
#54 = CARTESIAN_POINT('',(-1.016,1.27,0.));
#55 = DIRECTION('',(0.707106781187,-0.707106781187,0.));
#56 = DIRECTION('',(-0.707106781187,-0.707106781187,0.));
#57 = ADVANCED_FACE('',(#58),#83,.F.);
#58 = FACE_BOUND('',#59,.F.);
#59 = EDGE_LOOP('',(#60,#70,#76,#77));
#60 = ORIENTED_EDGE('',*,*,#61,.T.);
#61 = EDGE_CURVE('',#62,#64,#66,.T.);
#62 = VERTEX_POINT('',#63);
#63 = CARTESIAN_POINT('',(1.016,1.27,0.));
#64 = VERTEX_POINT('',#65);
#65 = CARTESIAN_POINT('',(1.016,1.27,2.54));
#66 = LINE('',#67,#68);
#67 = CARTESIAN_POINT('',(1.016,1.27,0.));
#68 = VECTOR('',#69,1.);
#69 = DIRECTION('',(0.,0.,1.));
#70 = ORIENTED_EDGE('',*,*,#71,.T.);
#71 = EDGE_CURVE('',#64,#24,#72,.T.);
#72 = LINE('',#73,#74);
#73 = CARTESIAN_POINT('',(1.016,1.27,2.54));
#74 = VECTOR('',#75,1.);
#75 = DIRECTION('',(-1.,0.,0.));
#76 = ORIENTED_EDGE('',*,*,#21,.F.);
#77 = ORIENTED_EDGE('',*,*,#78,.F.);
#78 = EDGE_CURVE('',#62,#22,#79,.T.);
#79 = LINE('',#80,#81);
#80 = CARTESIAN_POINT('',(1.016,1.27,0.));
#81 = VECTOR('',#82,1.);
#82 = DIRECTION('',(-1.,0.,0.));
#83 = PLANE('',#84);
#84 = AXIS2_PLACEMENT_3D('',#85,#86,#87);
#85 = CARTESIAN_POINT('',(1.016,1.27,0.));
#86 = DIRECTION('',(0.,-1.,0.));
#87 = DIRECTION('',(-1.,0.,0.));
#88 = ADVANCED_FACE('',(#89),#114,.F.);
#89 = FACE_BOUND('',#90,.F.);
#90 = EDGE_LOOP('',(#91,#92,#100,#108));
#91 = ORIENTED_EDGE('',*,*,#39,.T.);
#92 = ORIENTED_EDGE('',*,*,#93,.T.);
#93 = EDGE_CURVE('',#32,#94,#96,.T.);
#94 = VERTEX_POINT('',#95);
#95 = CARTESIAN_POINT('',(-1.27,-1.016,2.54));
#96 = LINE('',#97,#98);
#97 = CARTESIAN_POINT('',(-1.27,1.016,2.54));
#98 = VECTOR('',#99,1.);
#99 = DIRECTION('',(0.,-1.,0.));
#100 = ORIENTED_EDGE('',*,*,#101,.F.);
#101 = EDGE_CURVE('',#102,#94,#104,.T.);
#102 = VERTEX_POINT('',#103);
#103 = CARTESIAN_POINT('',(-1.27,-1.016,0.));
#104 = LINE('',#105,#106);
#105 = CARTESIAN_POINT('',(-1.27,-1.016,0.));
#106 = VECTOR('',#107,1.);
#107 = DIRECTION('',(0.,0.,1.));
#108 = ORIENTED_EDGE('',*,*,#109,.F.);
#109 = EDGE_CURVE('',#40,#102,#110,.T.);
#110 = LINE('',#111,#112);
#111 = CARTESIAN_POINT('',(-1.27,1.016,0.));
#112 = VECTOR('',#113,1.);
#113 = DIRECTION('',(0.,-1.,0.));
#114 = PLANE('',#115);
#115 = AXIS2_PLACEMENT_3D('',#116,#117,#118);
#116 = CARTESIAN_POINT('',(-1.27,1.016,0.));
#117 = DIRECTION('',(1.,0.,0.));
#118 = DIRECTION('',(0.,-1.,0.));
#119 = ADVANCED_FACE('',(#120,#163),#197,.F.);
#120 = FACE_BOUND('',#121,.F.);
#121 = EDGE_LOOP('',(#122,#123,#124,#132,#140,#148,#156,#162));
#122 = ORIENTED_EDGE('',*,*,#47,.T.);
#123 = ORIENTED_EDGE('',*,*,#109,.T.);
#124 = ORIENTED_EDGE('',*,*,#125,.T.);
#125 = EDGE_CURVE('',#102,#126,#128,.T.);
#126 = VERTEX_POINT('',#127);
#127 = CARTESIAN_POINT('',(-1.016,-1.27,0.));
#128 = LINE('',#129,#130);
#129 = CARTESIAN_POINT('',(-1.27,-1.016,0.));
#130 = VECTOR('',#131,1.);
#131 = DIRECTION('',(0.707106781187,-0.707106781187,0.));
#132 = ORIENTED_EDGE('',*,*,#133,.T.);
#133 = EDGE_CURVE('',#126,#134,#136,.T.);
#134 = VERTEX_POINT('',#135);
#135 = CARTESIAN_POINT('',(1.016,-1.27,0.));
#136 = LINE('',#137,#138);
#137 = CARTESIAN_POINT('',(-1.016,-1.27,0.));
#138 = VECTOR('',#139,1.);
#139 = DIRECTION('',(1.,0.,0.));
#140 = ORIENTED_EDGE('',*,*,#141,.T.);
#141 = EDGE_CURVE('',#134,#142,#144,.T.);
#142 = VERTEX_POINT('',#143);
#143 = CARTESIAN_POINT('',(1.27,-1.016,0.));
#144 = LINE('',#145,#146);
#145 = CARTESIAN_POINT('',(1.016,-1.27,0.));
#146 = VECTOR('',#147,1.);
#147 = DIRECTION('',(0.707106781187,0.707106781187,0.));
#148 = ORIENTED_EDGE('',*,*,#149,.T.);
#149 = EDGE_CURVE('',#142,#150,#152,.T.);
#150 = VERTEX_POINT('',#151);
#151 = CARTESIAN_POINT('',(1.27,1.016,0.));
#152 = LINE('',#153,#154);
#153 = CARTESIAN_POINT('',(1.27,-1.016,0.));
#154 = VECTOR('',#155,1.);
#155 = DIRECTION('',(0.,1.,0.));
#156 = ORIENTED_EDGE('',*,*,#157,.T.);
#157 = EDGE_CURVE('',#150,#62,#158,.T.);
#158 = LINE('',#159,#160);
#159 = CARTESIAN_POINT('',(1.27,1.016,0.));
#160 = VECTOR('',#161,1.);
#161 = DIRECTION('',(-0.707106781187,0.707106781187,0.));
#162 = ORIENTED_EDGE('',*,*,#78,.T.);
#163 = FACE_BOUND('',#164,.F.);
#164 = EDGE_LOOP('',(#165,#175,#183,#191));
#165 = ORIENTED_EDGE('',*,*,#166,.T.);
#166 = EDGE_CURVE('',#167,#169,#171,.T.);
#167 = VERTEX_POINT('',#168);
#168 = CARTESIAN_POINT('',(0.32,-0.32,0.));
#169 = VERTEX_POINT('',#170);
#170 = CARTESIAN_POINT('',(-0.32,-0.32,0.));
#171 = LINE('',#172,#173);
#172 = CARTESIAN_POINT('',(-0.16,-0.32,0.));
#173 = VECTOR('',#174,1.);
#174 = DIRECTION('',(-1.,0.,0.));
#175 = ORIENTED_EDGE('',*,*,#176,.T.);
#176 = EDGE_CURVE('',#169,#177,#179,.T.);
#177 = VERTEX_POINT('',#178);
#178 = CARTESIAN_POINT('',(-0.32,0.32,0.));
#179 = LINE('',#180,#181);
#180 = CARTESIAN_POINT('',(-0.32,-0.16,0.));
#181 = VECTOR('',#182,1.);
#182 = DIRECTION('',(0.,1.,0.));
#183 = ORIENTED_EDGE('',*,*,#184,.F.);
#184 = EDGE_CURVE('',#185,#177,#187,.T.);
#185 = VERTEX_POINT('',#186);
#186 = CARTESIAN_POINT('',(0.32,0.32,0.));
#187 = LINE('',#188,#189);
#188 = CARTESIAN_POINT('',(-0.16,0.32,0.));
#189 = VECTOR('',#190,1.);
#190 = DIRECTION('',(-1.,0.,0.));
#191 = ORIENTED_EDGE('',*,*,#192,.F.);
#192 = EDGE_CURVE('',#167,#185,#193,.T.);
#193 = LINE('',#194,#195);
#194 = CARTESIAN_POINT('',(0.32,-0.16,0.));
#195 = VECTOR('',#196,1.);
#196 = DIRECTION('',(0.,1.,0.));
#197 = PLANE('',#198);
#198 = AXIS2_PLACEMENT_3D('',#199,#200,#201);
#199 = CARTESIAN_POINT('',(2.321466769849E-17,4.642933539699E-17,0.));
#200 = DIRECTION('',(0.,0.,1.));
#201 = DIRECTION('',(1.,0.,0.));
#202 = ADVANCED_FACE('',(#203,#246),#280,.T.);
#203 = FACE_BOUND('',#204,.T.);
#204 = EDGE_LOOP('',(#205,#206,#207,#215,#223,#231,#239,#245));
#205 = ORIENTED_EDGE('',*,*,#31,.T.);
#206 = ORIENTED_EDGE('',*,*,#93,.T.);
#207 = ORIENTED_EDGE('',*,*,#208,.T.);
#208 = EDGE_CURVE('',#94,#209,#211,.T.);
#209 = VERTEX_POINT('',#210);
#210 = CARTESIAN_POINT('',(-1.016,-1.27,2.54));
#211 = LINE('',#212,#213);
#212 = CARTESIAN_POINT('',(-1.27,-1.016,2.54));
#213 = VECTOR('',#214,1.);
#214 = DIRECTION('',(0.707106781187,-0.707106781187,0.));
#215 = ORIENTED_EDGE('',*,*,#216,.T.);
#216 = EDGE_CURVE('',#209,#217,#219,.T.);
#217 = VERTEX_POINT('',#218);
#218 = CARTESIAN_POINT('',(1.016,-1.27,2.54));
#219 = LINE('',#220,#221);
#220 = CARTESIAN_POINT('',(-1.016,-1.27,2.54));
#221 = VECTOR('',#222,1.);
#222 = DIRECTION('',(1.,0.,0.));
#223 = ORIENTED_EDGE('',*,*,#224,.T.);
#224 = EDGE_CURVE('',#217,#225,#227,.T.);
#225 = VERTEX_POINT('',#226);
#226 = CARTESIAN_POINT('',(1.27,-1.016,2.54));
#227 = LINE('',#228,#229);
#228 = CARTESIAN_POINT('',(1.016,-1.27,2.54));
#229 = VECTOR('',#230,1.);
#230 = DIRECTION('',(0.707106781187,0.707106781187,0.));
#231 = ORIENTED_EDGE('',*,*,#232,.T.);
#232 = EDGE_CURVE('',#225,#233,#235,.T.);
#233 = VERTEX_POINT('',#234);
#234 = CARTESIAN_POINT('',(1.27,1.016,2.54));
#235 = LINE('',#236,#237);
#236 = CARTESIAN_POINT('',(1.27,-1.016,2.54));
#237 = VECTOR('',#238,1.);
#238 = DIRECTION('',(0.,1.,0.));
#239 = ORIENTED_EDGE('',*,*,#240,.T.);
#240 = EDGE_CURVE('',#233,#64,#241,.T.);
#241 = LINE('',#242,#243);
#242 = CARTESIAN_POINT('',(1.27,1.016,2.54));
#243 = VECTOR('',#244,1.);
#244 = DIRECTION('',(-0.707106781187,0.707106781187,0.));
#245 = ORIENTED_EDGE('',*,*,#71,.T.);
#246 = FACE_BOUND('',#247,.T.);
#247 = EDGE_LOOP('',(#248,#258,#266,#274));
#248 = ORIENTED_EDGE('',*,*,#249,.T.);
#249 = EDGE_CURVE('',#250,#252,#254,.T.);
#250 = VERTEX_POINT('',#251);
#251 = CARTESIAN_POINT('',(0.32,-0.32,2.54));
#252 = VERTEX_POINT('',#253);
#253 = CARTESIAN_POINT('',(-0.32,-0.32,2.54));
#254 = LINE('',#255,#256);
#255 = CARTESIAN_POINT('',(-0.16,-0.32,2.54));
#256 = VECTOR('',#257,1.);
#257 = DIRECTION('',(-1.,0.,0.));
#258 = ORIENTED_EDGE('',*,*,#259,.T.);
#259 = EDGE_CURVE('',#252,#260,#262,.T.);
#260 = VERTEX_POINT('',#261);
#261 = CARTESIAN_POINT('',(-0.32,0.32,2.54));
#262 = LINE('',#263,#264);
#263 = CARTESIAN_POINT('',(-0.32,-0.16,2.54));
#264 = VECTOR('',#265,1.);
#265 = DIRECTION('',(0.,1.,0.));
#266 = ORIENTED_EDGE('',*,*,#267,.F.);
#267 = EDGE_CURVE('',#268,#260,#270,.T.);
#268 = VERTEX_POINT('',#269);
#269 = CARTESIAN_POINT('',(0.32,0.32,2.54));
#270 = LINE('',#271,#272);
#271 = CARTESIAN_POINT('',(-0.16,0.32,2.54));
#272 = VECTOR('',#273,1.);
#273 = DIRECTION('',(-1.,0.,0.));
#274 = ORIENTED_EDGE('',*,*,#275,.F.);
#275 = EDGE_CURVE('',#250,#268,#276,.T.);
#276 = LINE('',#277,#278);
#277 = CARTESIAN_POINT('',(0.32,-0.16,2.54));
#278 = VECTOR('',#279,1.);
#279 = DIRECTION('',(0.,1.,0.));
#280 = PLANE('',#281);
#281 = AXIS2_PLACEMENT_3D('',#282,#283,#284);
#282 = CARTESIAN_POINT('',(2.321466769849E-17,4.642933539699E-17,2.54));
#283 = DIRECTION('',(0.,0.,1.));
#284 = DIRECTION('',(1.,0.,0.));
#285 = ADVANCED_FACE('',(#286),#297,.F.);
#286 = FACE_BOUND('',#287,.F.);
#287 = EDGE_LOOP('',(#288,#294,#295,#296));
#288 = ORIENTED_EDGE('',*,*,#289,.T.);
#289 = EDGE_CURVE('',#150,#233,#290,.T.);
#290 = LINE('',#291,#292);
#291 = CARTESIAN_POINT('',(1.27,1.016,0.));
#292 = VECTOR('',#293,1.);
#293 = DIRECTION('',(0.,0.,1.));
#294 = ORIENTED_EDGE('',*,*,#240,.T.);
#295 = ORIENTED_EDGE('',*,*,#61,.F.);
#296 = ORIENTED_EDGE('',*,*,#157,.F.);
#297 = PLANE('',#298);
#298 = AXIS2_PLACEMENT_3D('',#299,#300,#301);
#299 = CARTESIAN_POINT('',(1.27,1.016,0.));
#300 = DIRECTION('',(-0.707106781187,-0.707106781187,0.));
#301 = DIRECTION('',(-0.707106781187,0.707106781187,0.));
#302 = ADVANCED_FACE('',(#303),#314,.F.);
#303 = FACE_BOUND('',#304,.F.);
#304 = EDGE_LOOP('',(#305,#306,#307,#313));
#305 = ORIENTED_EDGE('',*,*,#101,.T.);
#306 = ORIENTED_EDGE('',*,*,#208,.T.);
#307 = ORIENTED_EDGE('',*,*,#308,.F.);
#308 = EDGE_CURVE('',#126,#209,#309,.T.);
#309 = LINE('',#310,#311);
#310 = CARTESIAN_POINT('',(-1.016,-1.27,0.));
#311 = VECTOR('',#312,1.);
#312 = DIRECTION('',(0.,0.,1.));
#313 = ORIENTED_EDGE('',*,*,#125,.F.);
#314 = PLANE('',#315);
#315 = AXIS2_PLACEMENT_3D('',#316,#317,#318);
#316 = CARTESIAN_POINT('',(-1.27,-1.016,0.));
#317 = DIRECTION('',(0.707106781187,0.707106781187,0.));
#318 = DIRECTION('',(0.707106781187,-0.707106781187,0.));
#319 = ADVANCED_FACE('',(#320),#331,.F.);
#320 = FACE_BOUND('',#321,.F.);
#321 = EDGE_LOOP('',(#322,#328,#329,#330));
#322 = ORIENTED_EDGE('',*,*,#323,.T.);
#323 = EDGE_CURVE('',#142,#225,#324,.T.);
#324 = LINE('',#325,#326);
#325 = CARTESIAN_POINT('',(1.27,-1.016,0.));
#326 = VECTOR('',#327,1.);
#327 = DIRECTION('',(0.,0.,1.));
#328 = ORIENTED_EDGE('',*,*,#232,.T.);
#329 = ORIENTED_EDGE('',*,*,#289,.F.);
#330 = ORIENTED_EDGE('',*,*,#149,.F.);
#331 = PLANE('',#332);
#332 = AXIS2_PLACEMENT_3D('',#333,#334,#335);
#333 = CARTESIAN_POINT('',(1.27,-1.016,0.));
#334 = DIRECTION('',(-1.,0.,0.));
#335 = DIRECTION('',(0.,1.,0.));
#336 = ADVANCED_FACE('',(#337),#348,.F.);
#337 = FACE_BOUND('',#338,.F.);
#338 = EDGE_LOOP('',(#339,#340,#341,#347));
#339 = ORIENTED_EDGE('',*,*,#308,.T.);
#340 = ORIENTED_EDGE('',*,*,#216,.T.);
#341 = ORIENTED_EDGE('',*,*,#342,.F.);
#342 = EDGE_CURVE('',#134,#217,#343,.T.);
#343 = LINE('',#344,#345);
#344 = CARTESIAN_POINT('',(1.016,-1.27,0.));
#345 = VECTOR('',#346,1.);
#346 = DIRECTION('',(0.,0.,1.));
#347 = ORIENTED_EDGE('',*,*,#133,.F.);
#348 = PLANE('',#349);
#349 = AXIS2_PLACEMENT_3D('',#350,#351,#352);
#350 = CARTESIAN_POINT('',(-1.016,-1.27,0.));
#351 = DIRECTION('',(0.,1.,0.));
#352 = DIRECTION('',(1.,0.,0.));
#353 = ADVANCED_FACE('',(#354),#360,.F.);
#354 = FACE_BOUND('',#355,.F.);
#355 = EDGE_LOOP('',(#356,#357,#358,#359));
#356 = ORIENTED_EDGE('',*,*,#342,.T.);
#357 = ORIENTED_EDGE('',*,*,#224,.T.);
#358 = ORIENTED_EDGE('',*,*,#323,.F.);
#359 = ORIENTED_EDGE('',*,*,#141,.F.);
#360 = PLANE('',#361);
#361 = AXIS2_PLACEMENT_3D('',#362,#363,#364);
#362 = CARTESIAN_POINT('',(1.016,-1.27,0.));
#363 = DIRECTION('',(-0.707106781187,0.707106781187,0.));
#364 = DIRECTION('',(0.707106781187,0.707106781187,0.));
#365 = ADVANCED_FACE('',(#366),#391,.F.);
#366 = FACE_BOUND('',#367,.F.);
#367 = EDGE_LOOP('',(#368,#376,#384,#390));
#368 = ORIENTED_EDGE('',*,*,#369,.F.);
#369 = EDGE_CURVE('',#370,#167,#372,.T.);
#370 = VERTEX_POINT('',#371);
#371 = CARTESIAN_POINT('',(0.32,-0.32,-2.84));
#372 = LINE('',#373,#374);
#373 = CARTESIAN_POINT('',(0.32,-0.32,-3.));
#374 = VECTOR('',#375,1.);
#375 = DIRECTION('',(0.,0.,1.));
#376 = ORIENTED_EDGE('',*,*,#377,.F.);
#377 = EDGE_CURVE('',#378,#370,#380,.T.);
#378 = VERTEX_POINT('',#379);
#379 = CARTESIAN_POINT('',(-0.32,-0.32,-2.84));
#380 = LINE('',#381,#382);
#381 = CARTESIAN_POINT('',(-0.32,-0.32,-2.84));
#382 = VECTOR('',#383,1.);
#383 = DIRECTION('',(1.,0.,0.));
#384 = ORIENTED_EDGE('',*,*,#385,.T.);
#385 = EDGE_CURVE('',#378,#169,#386,.T.);
#386 = LINE('',#387,#388);
#387 = CARTESIAN_POINT('',(-0.32,-0.32,-3.));
#388 = VECTOR('',#389,1.);
#389 = DIRECTION('',(0.,0.,1.));
#390 = ORIENTED_EDGE('',*,*,#166,.F.);
#391 = PLANE('',#392);
#392 = AXIS2_PLACEMENT_3D('',#393,#394,#395);
#393 = CARTESIAN_POINT('',(-0.32,-0.32,-3.));
#394 = DIRECTION('',(0.,1.,0.));
#395 = DIRECTION('',(0.,0.,1.));
#396 = ADVANCED_FACE('',(#397),#415,.T.);
#397 = FACE_BOUND('',#398,.T.);
#398 = EDGE_LOOP('',(#399,#400,#408,#414));
#399 = ORIENTED_EDGE('',*,*,#369,.F.);
#400 = ORIENTED_EDGE('',*,*,#401,.T.);
#401 = EDGE_CURVE('',#370,#402,#404,.T.);
#402 = VERTEX_POINT('',#403);
#403 = CARTESIAN_POINT('',(0.32,0.32,-2.84));
#404 = LINE('',#405,#406);
#405 = CARTESIAN_POINT('',(0.32,-0.32,-2.84));
#406 = VECTOR('',#407,1.);
#407 = DIRECTION('',(0.,1.,0.));
#408 = ORIENTED_EDGE('',*,*,#409,.T.);
#409 = EDGE_CURVE('',#402,#185,#410,.T.);
#410 = LINE('',#411,#412);
#411 = CARTESIAN_POINT('',(0.32,0.32,-3.));
#412 = VECTOR('',#413,1.);
#413 = DIRECTION('',(0.,0.,1.));
#414 = ORIENTED_EDGE('',*,*,#192,.F.);
#415 = PLANE('',#416);
#416 = AXIS2_PLACEMENT_3D('',#417,#418,#419);
#417 = CARTESIAN_POINT('',(0.32,-0.32,-3.));
#418 = DIRECTION('',(1.,0.,0.));
#419 = DIRECTION('',(0.,0.,1.));
#420 = ADVANCED_FACE('',(#421),#439,.T.);
#421 = FACE_BOUND('',#422,.T.);
#422 = EDGE_LOOP('',(#423,#424,#432,#438));
#423 = ORIENTED_EDGE('',*,*,#409,.F.);
#424 = ORIENTED_EDGE('',*,*,#425,.F.);
#425 = EDGE_CURVE('',#426,#402,#428,.T.);
#426 = VERTEX_POINT('',#427);
#427 = CARTESIAN_POINT('',(-0.32,0.32,-2.84));
#428 = LINE('',#429,#430);
#429 = CARTESIAN_POINT('',(-0.32,0.32,-2.84));
#430 = VECTOR('',#431,1.);
#431 = DIRECTION('',(1.,0.,0.));
#432 = ORIENTED_EDGE('',*,*,#433,.T.);
#433 = EDGE_CURVE('',#426,#177,#434,.T.);
#434 = LINE('',#435,#436);
#435 = CARTESIAN_POINT('',(-0.32,0.32,-3.));
#436 = VECTOR('',#437,1.);
#437 = DIRECTION('',(0.,0.,1.));
#438 = ORIENTED_EDGE('',*,*,#184,.F.);
#439 = PLANE('',#440);
#440 = AXIS2_PLACEMENT_3D('',#441,#442,#443);
#441 = CARTESIAN_POINT('',(-0.32,0.32,-3.));
#442 = DIRECTION('',(0.,1.,0.));
#443 = DIRECTION('',(0.,0.,1.));
#444 = ADVANCED_FACE('',(#445),#456,.F.);
#445 = FACE_BOUND('',#446,.F.);
#446 = EDGE_LOOP('',(#447,#448,#454,#455));
#447 = ORIENTED_EDGE('',*,*,#385,.F.);
#448 = ORIENTED_EDGE('',*,*,#449,.T.);
#449 = EDGE_CURVE('',#378,#426,#450,.T.);
#450 = LINE('',#451,#452);
#451 = CARTESIAN_POINT('',(-0.32,-0.32,-2.84));
#452 = VECTOR('',#453,1.);
#453 = DIRECTION('',(0.,1.,0.));
#454 = ORIENTED_EDGE('',*,*,#433,.T.);
#455 = ORIENTED_EDGE('',*,*,#176,.F.);
#456 = PLANE('',#457);
#457 = AXIS2_PLACEMENT_3D('',#458,#459,#460);
#458 = CARTESIAN_POINT('',(-0.32,-0.32,-3.));
#459 = DIRECTION('',(1.,0.,0.));
#460 = DIRECTION('',(0.,0.,1.));
#461 = ADVANCED_FACE('',(#462),#487,.F.);
#462 = FACE_BOUND('',#463,.F.);
#463 = EDGE_LOOP('',(#464,#472,#473,#481));
#464 = ORIENTED_EDGE('',*,*,#465,.F.);
#465 = EDGE_CURVE('',#250,#466,#468,.T.);
#466 = VERTEX_POINT('',#467);
#467 = CARTESIAN_POINT('',(0.32,-0.32,8.38));
#468 = LINE('',#469,#470);
#469 = CARTESIAN_POINT('',(0.32,-0.32,-3.));
#470 = VECTOR('',#471,1.);
#471 = DIRECTION('',(0.,0.,1.));
#472 = ORIENTED_EDGE('',*,*,#249,.T.);
#473 = ORIENTED_EDGE('',*,*,#474,.T.);
#474 = EDGE_CURVE('',#252,#475,#477,.T.);
#475 = VERTEX_POINT('',#476);
#476 = CARTESIAN_POINT('',(-0.32,-0.32,8.38));
#477 = LINE('',#478,#479);
#478 = CARTESIAN_POINT('',(-0.32,-0.32,-3.));
#479 = VECTOR('',#480,1.);
#480 = DIRECTION('',(0.,0.,1.));
#481 = ORIENTED_EDGE('',*,*,#482,.T.);
#482 = EDGE_CURVE('',#475,#466,#483,.T.);
#483 = LINE('',#484,#485);
#484 = CARTESIAN_POINT('',(-0.32,-0.32,8.38));
#485 = VECTOR('',#486,1.);
#486 = DIRECTION('',(1.,0.,0.));
#487 = PLANE('',#488);
#488 = AXIS2_PLACEMENT_3D('',#489,#490,#491);
#489 = CARTESIAN_POINT('',(-0.32,-0.32,-3.));
#490 = DIRECTION('',(0.,1.,0.));
#491 = DIRECTION('',(0.,0.,1.));
#492 = ADVANCED_FACE('',(#493),#511,.T.);
#493 = FACE_BOUND('',#494,.T.);
#494 = EDGE_LOOP('',(#495,#496,#497,#505));
#495 = ORIENTED_EDGE('',*,*,#465,.F.);
#496 = ORIENTED_EDGE('',*,*,#275,.T.);
#497 = ORIENTED_EDGE('',*,*,#498,.T.);
#498 = EDGE_CURVE('',#268,#499,#501,.T.);
#499 = VERTEX_POINT('',#500);
#500 = CARTESIAN_POINT('',(0.32,0.32,8.38));
#501 = LINE('',#502,#503);
#502 = CARTESIAN_POINT('',(0.32,0.32,-3.));
#503 = VECTOR('',#504,1.);
#504 = DIRECTION('',(0.,0.,1.));
#505 = ORIENTED_EDGE('',*,*,#506,.F.);
#506 = EDGE_CURVE('',#466,#499,#507,.T.);
#507 = LINE('',#508,#509);
#508 = CARTESIAN_POINT('',(0.32,-0.32,8.38));
#509 = VECTOR('',#510,1.);
#510 = DIRECTION('',(0.,1.,0.));
#511 = PLANE('',#512);
#512 = AXIS2_PLACEMENT_3D('',#513,#514,#515);
#513 = CARTESIAN_POINT('',(0.32,-0.32,-3.));
#514 = DIRECTION('',(1.,0.,0.));
#515 = DIRECTION('',(0.,0.,1.));
#516 = ADVANCED_FACE('',(#517),#535,.T.);
#517 = FACE_BOUND('',#518,.T.);
#518 = EDGE_LOOP('',(#519,#520,#521,#529));
#519 = ORIENTED_EDGE('',*,*,#498,.F.);
#520 = ORIENTED_EDGE('',*,*,#267,.T.);
#521 = ORIENTED_EDGE('',*,*,#522,.T.);
#522 = EDGE_CURVE('',#260,#523,#525,.T.);
#523 = VERTEX_POINT('',#524);
#524 = CARTESIAN_POINT('',(-0.32,0.32,8.38));
#525 = LINE('',#526,#527);
#526 = CARTESIAN_POINT('',(-0.32,0.32,-3.));
#527 = VECTOR('',#528,1.);
#528 = DIRECTION('',(0.,0.,1.));
#529 = ORIENTED_EDGE('',*,*,#530,.T.);
#530 = EDGE_CURVE('',#523,#499,#531,.T.);
#531 = LINE('',#532,#533);
#532 = CARTESIAN_POINT('',(-0.32,0.32,8.38));
#533 = VECTOR('',#534,1.);
#534 = DIRECTION('',(1.,0.,0.));
#535 = PLANE('',#536);
#536 = AXIS2_PLACEMENT_3D('',#537,#538,#539);
#537 = CARTESIAN_POINT('',(-0.32,0.32,-3.));
#538 = DIRECTION('',(0.,1.,0.));
#539 = DIRECTION('',(0.,0.,1.));
#540 = ADVANCED_FACE('',(#541),#552,.F.);
#541 = FACE_BOUND('',#542,.F.);
#542 = EDGE_LOOP('',(#543,#544,#545,#546));
#543 = ORIENTED_EDGE('',*,*,#474,.F.);
#544 = ORIENTED_EDGE('',*,*,#259,.T.);
#545 = ORIENTED_EDGE('',*,*,#522,.T.);
#546 = ORIENTED_EDGE('',*,*,#547,.F.);
#547 = EDGE_CURVE('',#475,#523,#548,.T.);
#548 = LINE('',#549,#550);
#549 = CARTESIAN_POINT('',(-0.32,-0.32,8.38));
#550 = VECTOR('',#551,1.);
#551 = DIRECTION('',(0.,1.,0.));
#552 = PLANE('',#553);
#553 = AXIS2_PLACEMENT_3D('',#554,#555,#556);
#554 = CARTESIAN_POINT('',(-0.32,-0.32,-3.));
#555 = DIRECTION('',(1.,0.,0.));
#556 = DIRECTION('',(0.,0.,1.));
#557 = ADVANCED_FACE('',(#558),#583,.T.);
#558 = FACE_BOUND('',#559,.F.);
#559 = EDGE_LOOP('',(#560,#568,#569,#577));
#560 = ORIENTED_EDGE('',*,*,#561,.F.);
#561 = EDGE_CURVE('',#378,#562,#564,.T.);
#562 = VERTEX_POINT('',#563);
#563 = CARTESIAN_POINT('',(-0.16,-0.16,-3.));
#564 = LINE('',#565,#566);
#565 = CARTESIAN_POINT('',(-0.266666666667,-0.266666666667,
-2.893333333333));
#566 = VECTOR('',#567,1.);
#567 = DIRECTION('',(0.57735026919,0.57735026919,-0.57735026919));
#568 = ORIENTED_EDGE('',*,*,#377,.T.);
#569 = ORIENTED_EDGE('',*,*,#570,.T.);
#570 = EDGE_CURVE('',#370,#571,#573,.T.);
#571 = VERTEX_POINT('',#572);
#572 = CARTESIAN_POINT('',(0.16,-0.16,-3.));
#573 = LINE('',#574,#575);
#574 = CARTESIAN_POINT('',(0.16,-0.16,-3.));
#575 = VECTOR('',#576,1.);
#576 = DIRECTION('',(-0.57735026919,0.57735026919,-0.57735026919));
#577 = ORIENTED_EDGE('',*,*,#578,.F.);
#578 = EDGE_CURVE('',#562,#571,#579,.T.);
#579 = LINE('',#580,#581);
#580 = CARTESIAN_POINT('',(-0.32,-0.16,-3.));
#581 = VECTOR('',#582,1.);
#582 = DIRECTION('',(1.,0.,0.));
#583 = PLANE('',#584);
#584 = AXIS2_PLACEMENT_3D('',#585,#586,#587);
#585 = CARTESIAN_POINT('',(-0.32,-0.24,-2.92));
#586 = DIRECTION('',(1.735167508358E-18,-0.707106781187,-0.707106781187)
);
#587 = DIRECTION('',(-1.,-1.226948711654E-18,-1.226948711654E-18));
#588 = ADVANCED_FACE('',(#589),#607,.F.);
#589 = FACE_BOUND('',#590,.F.);
#590 = EDGE_LOOP('',(#591,#592,#593,#601));
#591 = ORIENTED_EDGE('',*,*,#570,.F.);
#592 = ORIENTED_EDGE('',*,*,#401,.T.);
#593 = ORIENTED_EDGE('',*,*,#594,.T.);
#594 = EDGE_CURVE('',#402,#595,#597,.T.);
#595 = VERTEX_POINT('',#596);
#596 = CARTESIAN_POINT('',(0.16,0.16,-3.));
#597 = LINE('',#598,#599);
#598 = CARTESIAN_POINT('',(5.333333333333E-02,5.333333333333E-02,
-3.106666666667));
#599 = VECTOR('',#600,1.);
#600 = DIRECTION('',(-0.57735026919,-0.57735026919,-0.57735026919));
#601 = ORIENTED_EDGE('',*,*,#602,.F.);
#602 = EDGE_CURVE('',#571,#595,#603,.T.);
#603 = LINE('',#604,#605);
#604 = CARTESIAN_POINT('',(0.16,-0.32,-3.));
#605 = VECTOR('',#606,1.);
#606 = DIRECTION('',(0.,1.,0.));
#607 = PLANE('',#608);
#608 = AXIS2_PLACEMENT_3D('',#609,#610,#611);
#609 = CARTESIAN_POINT('',(0.24,-0.32,-2.92));
#610 = DIRECTION('',(-0.707106781187,1.735167508358E-18,0.707106781187)
);
#611 = DIRECTION('',(1.226948711654E-18,1.,-1.226948711654E-18));
#612 = ADVANCED_FACE('',(#613),#631,.F.);
#613 = FACE_BOUND('',#614,.T.);
#614 = EDGE_LOOP('',(#615,#623,#624,#625));
#615 = ORIENTED_EDGE('',*,*,#616,.F.);
#616 = EDGE_CURVE('',#426,#617,#619,.T.);
#617 = VERTEX_POINT('',#618);
#618 = CARTESIAN_POINT('',(-0.16,0.16,-3.));
#619 = LINE('',#620,#621);
#620 = CARTESIAN_POINT('',(-0.16,0.16,-3.));
#621 = VECTOR('',#622,1.);
#622 = DIRECTION('',(0.57735026919,-0.57735026919,-0.57735026919));
#623 = ORIENTED_EDGE('',*,*,#425,.T.);
#624 = ORIENTED_EDGE('',*,*,#594,.T.);
#625 = ORIENTED_EDGE('',*,*,#626,.F.);
#626 = EDGE_CURVE('',#617,#595,#627,.T.);
#627 = LINE('',#628,#629);
#628 = CARTESIAN_POINT('',(-0.32,0.16,-3.));
#629 = VECTOR('',#630,1.);
#630 = DIRECTION('',(1.,0.,0.));
#631 = PLANE('',#632);
#632 = AXIS2_PLACEMENT_3D('',#633,#634,#635);
#633 = CARTESIAN_POINT('',(-0.32,0.24,-2.92));
#634 = DIRECTION('',(-1.735167508358E-18,-0.707106781187,0.707106781187)
);
#635 = DIRECTION('',(-1.,1.226948711654E-18,-1.226948711654E-18));
#636 = ADVANCED_FACE('',(#637),#648,.T.);
#637 = FACE_BOUND('',#638,.T.);
#638 = EDGE_LOOP('',(#639,#640,#641,#642));
#639 = ORIENTED_EDGE('',*,*,#561,.F.);
#640 = ORIENTED_EDGE('',*,*,#449,.T.);
#641 = ORIENTED_EDGE('',*,*,#616,.T.);
#642 = ORIENTED_EDGE('',*,*,#643,.F.);
#643 = EDGE_CURVE('',#562,#617,#644,.T.);
#644 = LINE('',#645,#646);
#645 = CARTESIAN_POINT('',(-0.16,-0.32,-3.));
#646 = VECTOR('',#647,1.);
#647 = DIRECTION('',(0.,1.,0.));
#648 = PLANE('',#649);
#649 = AXIS2_PLACEMENT_3D('',#650,#651,#652);
#650 = CARTESIAN_POINT('',(-0.24,-0.32,-2.92));
#651 = DIRECTION('',(-0.707106781187,-1.735167508358E-18,-0.707106781187
));
#652 = DIRECTION('',(-1.226948711654E-18,1.,-1.226948711654E-18));
#653 = ADVANCED_FACE('',(#654),#679,.F.);
#654 = FACE_BOUND('',#655,.T.);
#655 = EDGE_LOOP('',(#656,#664,#665,#673));
#656 = ORIENTED_EDGE('',*,*,#657,.F.);
#657 = EDGE_CURVE('',#475,#658,#660,.T.);
#658 = VERTEX_POINT('',#659);
#659 = CARTESIAN_POINT('',(-0.16,-0.16,8.54));
#660 = LINE('',#661,#662);
#661 = CARTESIAN_POINT('',(-0.266666666667,-0.266666666667,
8.433333333333));
#662 = VECTOR('',#663,1.);
#663 = DIRECTION('',(0.57735026919,0.57735026919,0.57735026919));
#664 = ORIENTED_EDGE('',*,*,#482,.T.);
#665 = ORIENTED_EDGE('',*,*,#666,.T.);
#666 = EDGE_CURVE('',#466,#667,#669,.T.);
#667 = VERTEX_POINT('',#668);
#668 = CARTESIAN_POINT('',(0.16,-0.16,8.54));
#669 = LINE('',#670,#671);
#670 = CARTESIAN_POINT('',(0.16,-0.16,8.54));
#671 = VECTOR('',#672,1.);
#672 = DIRECTION('',(-0.57735026919,0.57735026919,0.57735026919));
#673 = ORIENTED_EDGE('',*,*,#674,.F.);
#674 = EDGE_CURVE('',#658,#667,#675,.T.);
#675 = LINE('',#676,#677);
#676 = CARTESIAN_POINT('',(-0.32,-0.16,8.54));
#677 = VECTOR('',#678,1.);
#678 = DIRECTION('',(1.,0.,0.));
#679 = PLANE('',#680);
#680 = AXIS2_PLACEMENT_3D('',#681,#682,#683);
#681 = CARTESIAN_POINT('',(-0.32,-0.24,8.46));
#682 = DIRECTION('',(-1.735167508358E-18,0.707106781187,-0.707106781187)
);
#683 = DIRECTION('',(-1.,-1.226948711654E-18,1.226948711654E-18));
#684 = ADVANCED_FACE('',(#685),#703,.T.);
#685 = FACE_BOUND('',#686,.T.);
#686 = EDGE_LOOP('',(#687,#688,#689,#697));
#687 = ORIENTED_EDGE('',*,*,#666,.F.);
#688 = ORIENTED_EDGE('',*,*,#506,.T.);
#689 = ORIENTED_EDGE('',*,*,#690,.T.);
#690 = EDGE_CURVE('',#499,#691,#693,.T.);
#691 = VERTEX_POINT('',#692);
#692 = CARTESIAN_POINT('',(0.16,0.16,8.54));
#693 = LINE('',#694,#695);
#694 = CARTESIAN_POINT('',(5.333333333333E-02,5.333333333333E-02,
8.646666666667));
#695 = VECTOR('',#696,1.);
#696 = DIRECTION('',(-0.57735026919,-0.57735026919,0.57735026919));
#697 = ORIENTED_EDGE('',*,*,#698,.F.);
#698 = EDGE_CURVE('',#667,#691,#699,.T.);
#699 = LINE('',#700,#701);
#700 = CARTESIAN_POINT('',(0.16,-0.32,8.54));
#701 = VECTOR('',#702,1.);
#702 = DIRECTION('',(0.,1.,0.));
#703 = PLANE('',#704);
#704 = AXIS2_PLACEMENT_3D('',#705,#706,#707);
#705 = CARTESIAN_POINT('',(0.24,-0.32,8.46));
#706 = DIRECTION('',(0.707106781187,-1.735167508358E-18,0.707106781187)
);
#707 = DIRECTION('',(1.226948711654E-18,1.,1.226948711654E-18));
#708 = ADVANCED_FACE('',(#709),#727,.T.);
#709 = FACE_BOUND('',#710,.F.);
#710 = EDGE_LOOP('',(#711,#719,#720,#721));
#711 = ORIENTED_EDGE('',*,*,#712,.F.);
#712 = EDGE_CURVE('',#523,#713,#715,.T.);
#713 = VERTEX_POINT('',#714);
#714 = CARTESIAN_POINT('',(-0.16,0.16,8.54));
#715 = LINE('',#716,#717);
#716 = CARTESIAN_POINT('',(-0.16,0.16,8.54));
#717 = VECTOR('',#718,1.);
#718 = DIRECTION('',(0.57735026919,-0.57735026919,0.57735026919));
#719 = ORIENTED_EDGE('',*,*,#530,.T.);
#720 = ORIENTED_EDGE('',*,*,#690,.T.);
#721 = ORIENTED_EDGE('',*,*,#722,.F.);
#722 = EDGE_CURVE('',#713,#691,#723,.T.);
#723 = LINE('',#724,#725);
#724 = CARTESIAN_POINT('',(-0.32,0.16,8.54));
#725 = VECTOR('',#726,1.);
#726 = DIRECTION('',(1.,0.,0.));
#727 = PLANE('',#728);
#728 = AXIS2_PLACEMENT_3D('',#729,#730,#731);
#729 = CARTESIAN_POINT('',(-0.32,0.24,8.46));
#730 = DIRECTION('',(1.735167508358E-18,0.707106781187,0.707106781187));
#731 = DIRECTION('',(-1.,1.226948711654E-18,1.226948711654E-18));
#732 = ADVANCED_FACE('',(#733),#744,.F.);
#733 = FACE_BOUND('',#734,.F.);
#734 = EDGE_LOOP('',(#735,#736,#737,#738));
#735 = ORIENTED_EDGE('',*,*,#657,.F.);
#736 = ORIENTED_EDGE('',*,*,#547,.T.);
#737 = ORIENTED_EDGE('',*,*,#712,.T.);
#738 = ORIENTED_EDGE('',*,*,#739,.F.);
#739 = EDGE_CURVE('',#658,#713,#740,.T.);
#740 = LINE('',#741,#742);
#741 = CARTESIAN_POINT('',(-0.16,-0.32,8.54));
#742 = VECTOR('',#743,1.);
#743 = DIRECTION('',(0.,1.,0.));
#744 = PLANE('',#745);
#745 = AXIS2_PLACEMENT_3D('',#746,#747,#748);
#746 = CARTESIAN_POINT('',(-0.24,-0.32,8.46));
#747 = DIRECTION('',(0.707106781187,1.735167508358E-18,-0.707106781187)
);
#748 = DIRECTION('',(-1.226948711654E-18,1.,1.226948711654E-18));
#749 = ADVANCED_FACE('',(#750),#756,.F.);
#750 = FACE_BOUND('',#751,.F.);
#751 = EDGE_LOOP('',(#752,#753,#754,#755));
#752 = ORIENTED_EDGE('',*,*,#626,.F.);
#753 = ORIENTED_EDGE('',*,*,#643,.F.);
#754 = ORIENTED_EDGE('',*,*,#578,.T.);
#755 = ORIENTED_EDGE('',*,*,#602,.T.);
#756 = PLANE('',#757);
#757 = AXIS2_PLACEMENT_3D('',#758,#759,#760);
#758 = CARTESIAN_POINT('',(-0.32,-0.32,-3.));
#759 = DIRECTION('',(0.,0.,1.));
#760 = DIRECTION('',(1.,0.,0.));
#761 = ADVANCED_FACE('',(#762),#768,.T.);
#762 = FACE_BOUND('',#763,.T.);
#763 = EDGE_LOOP('',(#764,#765,#766,#767));
#764 = ORIENTED_EDGE('',*,*,#698,.T.);
#765 = ORIENTED_EDGE('',*,*,#722,.F.);
#766 = ORIENTED_EDGE('',*,*,#739,.F.);
#767 = ORIENTED_EDGE('',*,*,#674,.T.);
#768 = PLANE('',#769);
#769 = AXIS2_PLACEMENT_3D('',#770,#771,#772);
#770 = CARTESIAN_POINT('',(-0.32,-0.32,8.54));
#771 = DIRECTION('',(0.,0.,1.));
#772 = DIRECTION('',(1.,0.,0.));
#773 = ( GEOMETRIC_REPRESENTATION_CONTEXT(3)
GLOBAL_UNCERTAINTY_ASSIGNED_CONTEXT((#777)) GLOBAL_UNIT_ASSIGNED_CONTEXT
((#774,#775,#776)) REPRESENTATION_CONTEXT('Context #1',
'3D Context with UNIT and UNCERTAINTY') );
#774 = ( LENGTH_UNIT() NAMED_UNIT(*) SI_UNIT(.MILLI.,.METRE.) );
#775 = ( NAMED_UNIT(*) PLANE_ANGLE_UNIT() SI_UNIT($,.RADIAN.) );
#776 = ( NAMED_UNIT(*) SI_UNIT($,.STERADIAN.) SOLID_ANGLE_UNIT() );
#777 = UNCERTAINTY_MEASURE_WITH_UNIT(LENGTH_MEASURE(2.E-05),#774,
'distance_accuracy_value','confusion accuracy');
#778 = PRODUCT_RELATED_PRODUCT_CATEGORY('part',$,(#7));
#779 = MECHANICAL_DESIGN_GEOMETRIC_PRESENTATION_REPRESENTATION('',(#780,
#788,#795,#802,#809,#816,#823,#830,#837,#844,#851,#859,#866,#873,
#880,#887,#894,#901,#908,#915,#922,#929,#936,#943,#950,#957,#964,
#971),#773);
#780 = STYLED_ITEM('color',(#781),#17);
#781 = PRESENTATION_STYLE_ASSIGNMENT((#782));
#782 = SURFACE_STYLE_USAGE(.BOTH.,#783);
#783 = SURFACE_SIDE_STYLE('',(#784));
#784 = SURFACE_STYLE_FILL_AREA(#785);
#785 = FILL_AREA_STYLE('',(#786));
#786 = FILL_AREA_STYLE_COLOUR('',#787);
#787 = COLOUR_RGB('',0.148000001907,0.144999995828,0.144999995828);
#788 = STYLED_ITEM('color',(#789),#57);
#789 = PRESENTATION_STYLE_ASSIGNMENT((#790));
#790 = SURFACE_STYLE_USAGE(.BOTH.,#791);
#791 = SURFACE_SIDE_STYLE('',(#792));
#792 = SURFACE_STYLE_FILL_AREA(#793);
#793 = FILL_AREA_STYLE('',(#794));
#794 = FILL_AREA_STYLE_COLOUR('',#787);
#795 = STYLED_ITEM('color',(#796),#88);
#796 = PRESENTATION_STYLE_ASSIGNMENT((#797));
#797 = SURFACE_STYLE_USAGE(.BOTH.,#798);
#798 = SURFACE_SIDE_STYLE('',(#799));
#799 = SURFACE_STYLE_FILL_AREA(#800);
#800 = FILL_AREA_STYLE('',(#801));
#801 = FILL_AREA_STYLE_COLOUR('',#787);
#802 = STYLED_ITEM('color',(#803),#119);
#803 = PRESENTATION_STYLE_ASSIGNMENT((#804));
#804 = SURFACE_STYLE_USAGE(.BOTH.,#805);
#805 = SURFACE_SIDE_STYLE('',(#806));
#806 = SURFACE_STYLE_FILL_AREA(#807);
#807 = FILL_AREA_STYLE('',(#808));
#808 = FILL_AREA_STYLE_COLOUR('',#787);
#809 = STYLED_ITEM('color',(#810),#202);
#810 = PRESENTATION_STYLE_ASSIGNMENT((#811));
#811 = SURFACE_STYLE_USAGE(.BOTH.,#812);
#812 = SURFACE_SIDE_STYLE('',(#813));
#813 = SURFACE_STYLE_FILL_AREA(#814);
#814 = FILL_AREA_STYLE('',(#815));
#815 = FILL_AREA_STYLE_COLOUR('',#787);
#816 = STYLED_ITEM('color',(#817),#285);
#817 = PRESENTATION_STYLE_ASSIGNMENT((#818));
#818 = SURFACE_STYLE_USAGE(.BOTH.,#819);
#819 = SURFACE_SIDE_STYLE('',(#820));
#820 = SURFACE_STYLE_FILL_AREA(#821);
#821 = FILL_AREA_STYLE('',(#822));
#822 = FILL_AREA_STYLE_COLOUR('',#787);
#823 = STYLED_ITEM('color',(#824),#302);
#824 = PRESENTATION_STYLE_ASSIGNMENT((#825));
#825 = SURFACE_STYLE_USAGE(.BOTH.,#826);
#826 = SURFACE_SIDE_STYLE('',(#827));
#827 = SURFACE_STYLE_FILL_AREA(#828);
#828 = FILL_AREA_STYLE('',(#829));
#829 = FILL_AREA_STYLE_COLOUR('',#787);
#830 = STYLED_ITEM('color',(#831),#319);
#831 = PRESENTATION_STYLE_ASSIGNMENT((#832));
#832 = SURFACE_STYLE_USAGE(.BOTH.,#833);
#833 = SURFACE_SIDE_STYLE('',(#834));
#834 = SURFACE_STYLE_FILL_AREA(#835);
#835 = FILL_AREA_STYLE('',(#836));
#836 = FILL_AREA_STYLE_COLOUR('',#787);
#837 = STYLED_ITEM('color',(#838),#336);
#838 = PRESENTATION_STYLE_ASSIGNMENT((#839));
#839 = SURFACE_STYLE_USAGE(.BOTH.,#840);
#840 = SURFACE_SIDE_STYLE('',(#841));
#841 = SURFACE_STYLE_FILL_AREA(#842);
#842 = FILL_AREA_STYLE('',(#843));
#843 = FILL_AREA_STYLE_COLOUR('',#787);
#844 = STYLED_ITEM('color',(#845),#353);
#845 = PRESENTATION_STYLE_ASSIGNMENT((#846));
#846 = SURFACE_STYLE_USAGE(.BOTH.,#847);
#847 = SURFACE_SIDE_STYLE('',(#848));
#848 = SURFACE_STYLE_FILL_AREA(#849);
#849 = FILL_AREA_STYLE('',(#850));
#850 = FILL_AREA_STYLE_COLOUR('',#787);
#851 = STYLED_ITEM('color',(#852),#365);
#852 = PRESENTATION_STYLE_ASSIGNMENT((#853));
#853 = SURFACE_STYLE_USAGE(.BOTH.,#854);
#854 = SURFACE_SIDE_STYLE('',(#855));
#855 = SURFACE_STYLE_FILL_AREA(#856);
#856 = FILL_AREA_STYLE('',(#857));
#857 = FILL_AREA_STYLE_COLOUR('',#858);
#858 = COLOUR_RGB('',0.85900002718,0.737999975681,0.495999991894);
#859 = STYLED_ITEM('color',(#860),#396);
#860 = PRESENTATION_STYLE_ASSIGNMENT((#861));
#861 = SURFACE_STYLE_USAGE(.BOTH.,#862);
#862 = SURFACE_SIDE_STYLE('',(#863));
#863 = SURFACE_STYLE_FILL_AREA(#864);
#864 = FILL_AREA_STYLE('',(#865));
#865 = FILL_AREA_STYLE_COLOUR('',#858);
#866 = STYLED_ITEM('color',(#867),#420);
#867 = PRESENTATION_STYLE_ASSIGNMENT((#868));
#868 = SURFACE_STYLE_USAGE(.BOTH.,#869);
#869 = SURFACE_SIDE_STYLE('',(#870));
#870 = SURFACE_STYLE_FILL_AREA(#871);
#871 = FILL_AREA_STYLE('',(#872));
#872 = FILL_AREA_STYLE_COLOUR('',#858);
#873 = STYLED_ITEM('color',(#874),#444);
#874 = PRESENTATION_STYLE_ASSIGNMENT((#875));
#875 = SURFACE_STYLE_USAGE(.BOTH.,#876);
#876 = SURFACE_SIDE_STYLE('',(#877));
#877 = SURFACE_STYLE_FILL_AREA(#878);
#878 = FILL_AREA_STYLE('',(#879));
#879 = FILL_AREA_STYLE_COLOUR('',#858);
#880 = STYLED_ITEM('color',(#881),#461);
#881 = PRESENTATION_STYLE_ASSIGNMENT((#882));
#882 = SURFACE_STYLE_USAGE(.BOTH.,#883);
#883 = SURFACE_SIDE_STYLE('',(#884));
#884 = SURFACE_STYLE_FILL_AREA(#885);
#885 = FILL_AREA_STYLE('',(#886));
#886 = FILL_AREA_STYLE_COLOUR('',#858);
#887 = STYLED_ITEM('color',(#888),#492);
#888 = PRESENTATION_STYLE_ASSIGNMENT((#889));
#889 = SURFACE_STYLE_USAGE(.BOTH.,#890);
#890 = SURFACE_SIDE_STYLE('',(#891));
#891 = SURFACE_STYLE_FILL_AREA(#892);
#892 = FILL_AREA_STYLE('',(#893));
#893 = FILL_AREA_STYLE_COLOUR('',#858);
#894 = STYLED_ITEM('color',(#895),#516);
#895 = PRESENTATION_STYLE_ASSIGNMENT((#896));
#896 = SURFACE_STYLE_USAGE(.BOTH.,#897);
#897 = SURFACE_SIDE_STYLE('',(#898));
#898 = SURFACE_STYLE_FILL_AREA(#899);
#899 = FILL_AREA_STYLE('',(#900));
#900 = FILL_AREA_STYLE_COLOUR('',#858);
#901 = STYLED_ITEM('color',(#902),#540);
#902 = PRESENTATION_STYLE_ASSIGNMENT((#903));
#903 = SURFACE_STYLE_USAGE(.BOTH.,#904);
#904 = SURFACE_SIDE_STYLE('',(#905));
#905 = SURFACE_STYLE_FILL_AREA(#906);
#906 = FILL_AREA_STYLE('',(#907));
#907 = FILL_AREA_STYLE_COLOUR('',#858);
#908 = STYLED_ITEM('color',(#909),#557);
#909 = PRESENTATION_STYLE_ASSIGNMENT((#910));
#910 = SURFACE_STYLE_USAGE(.BOTH.,#911);
#911 = SURFACE_SIDE_STYLE('',(#912));
#912 = SURFACE_STYLE_FILL_AREA(#913);
#913 = FILL_AREA_STYLE('',(#914));
#914 = FILL_AREA_STYLE_COLOUR('',#858);
#915 = STYLED_ITEM('color',(#916),#588);
#916 = PRESENTATION_STYLE_ASSIGNMENT((#917));
#917 = SURFACE_STYLE_USAGE(.BOTH.,#918);
#918 = SURFACE_SIDE_STYLE('',(#919));
#919 = SURFACE_STYLE_FILL_AREA(#920);
#920 = FILL_AREA_STYLE('',(#921));
#921 = FILL_AREA_STYLE_COLOUR('',#858);
#922 = STYLED_ITEM('color',(#923),#612);
#923 = PRESENTATION_STYLE_ASSIGNMENT((#924));
#924 = SURFACE_STYLE_USAGE(.BOTH.,#925);
#925 = SURFACE_SIDE_STYLE('',(#926));
#926 = SURFACE_STYLE_FILL_AREA(#927);
#927 = FILL_AREA_STYLE('',(#928));
#928 = FILL_AREA_STYLE_COLOUR('',#858);
#929 = STYLED_ITEM('color',(#930),#636);
#930 = PRESENTATION_STYLE_ASSIGNMENT((#931));
#931 = SURFACE_STYLE_USAGE(.BOTH.,#932);
#932 = SURFACE_SIDE_STYLE('',(#933));
#933 = SURFACE_STYLE_FILL_AREA(#934);
#934 = FILL_AREA_STYLE('',(#935));
#935 = FILL_AREA_STYLE_COLOUR('',#858);
#936 = STYLED_ITEM('color',(#937),#653);
#937 = PRESENTATION_STYLE_ASSIGNMENT((#938));
#938 = SURFACE_STYLE_USAGE(.BOTH.,#939);
#939 = SURFACE_SIDE_STYLE('',(#940));
#940 = SURFACE_STYLE_FILL_AREA(#941);
#941 = FILL_AREA_STYLE('',(#942));
#942 = FILL_AREA_STYLE_COLOUR('',#858);
#943 = STYLED_ITEM('color',(#944),#684);
#944 = PRESENTATION_STYLE_ASSIGNMENT((#945));
#945 = SURFACE_STYLE_USAGE(.BOTH.,#946);
#946 = SURFACE_SIDE_STYLE('',(#947));
#947 = SURFACE_STYLE_FILL_AREA(#948);
#948 = FILL_AREA_STYLE('',(#949));
#949 = FILL_AREA_STYLE_COLOUR('',#858);
#950 = STYLED_ITEM('color',(#951),#708);
#951 = PRESENTATION_STYLE_ASSIGNMENT((#952));
#952 = SURFACE_STYLE_USAGE(.BOTH.,#953);
#953 = SURFACE_SIDE_STYLE('',(#954));
#954 = SURFACE_STYLE_FILL_AREA(#955);
#955 = FILL_AREA_STYLE('',(#956));
#956 = FILL_AREA_STYLE_COLOUR('',#858);
#957 = STYLED_ITEM('color',(#958),#732);
#958 = PRESENTATION_STYLE_ASSIGNMENT((#959));
#959 = SURFACE_STYLE_USAGE(.BOTH.,#960);
#960 = SURFACE_SIDE_STYLE('',(#961));
#961 = SURFACE_STYLE_FILL_AREA(#962);
#962 = FILL_AREA_STYLE('',(#963));
#963 = FILL_AREA_STYLE_COLOUR('',#858);
#964 = STYLED_ITEM('color',(#965),#749);
#965 = PRESENTATION_STYLE_ASSIGNMENT((#966));
#966 = SURFACE_STYLE_USAGE(.BOTH.,#967);
#967 = SURFACE_SIDE_STYLE('',(#968));
#968 = SURFACE_STYLE_FILL_AREA(#969);
#969 = FILL_AREA_STYLE('',(#970));
#970 = FILL_AREA_STYLE_COLOUR('',#858);
#971 = STYLED_ITEM('color',(#972),#761);
#972 = PRESENTATION_STYLE_ASSIGNMENT((#973));
#973 = SURFACE_STYLE_USAGE(.BOTH.,#974);
#974 = SURFACE_SIDE_STYLE('',(#975));
#975 = SURFACE_STYLE_FILL_AREA(#976);
#976 = FILL_AREA_STYLE('',(#977));
#977 = FILL_AREA_STYLE_COLOUR('',#858);
ENDSEC;
END-ISO-10303-21;
